999999 100000 525
999999 999999 259
624034 967643 525
261966 719789 509
267173 292604 407
204764 754541 509
129791 424005 449
164563 917699 525
164814 574646 470
217034 615855 470
185646 623306 470
319523 814195 509
105650 203085 383
890926 986460 507
558967 736013 509
565962 827011 509
237359 734037 509
17838 294601 443
164406 787717 509
604538 838808 525
530097 964230 525
217256 932493 525
135351 539813 470
437364 971473 525
89690 439203 449
700595 946687 525
414181 682000 509
778363 797240 468
96689 765717 509
569099 592645 434
203910 654880 509
48663 287645 443
246021 569392 470
60794 550949 470
310049 561635 470
511028 807470 509
276063 931211 525
153449 480518 449
221851 612640 470
246761 775776 509
240724 491957 449
205640 620372 470
713490 732167 411
99248 210089 383
128982 958974 525
539437 712516 509
240491 746317 509
379059 982412 525
433602 725604 509
658444 887672 525
328396 346241 441
37509 655235 509
205320 672148 509
98415 250740 443
767326 839580 525
324509 737588 509
685314 782320 504
91511 114723 354
42753 406433 443
561304 616722 447
197055 528319 470
428420 846245 525
3635 906010 525
149233 219271 386
226976 634276 509
625405 626837 509
566973 655393 509
243064 940832 525
180405 723660 509
202488 909944 525
196054 595103 470
318256 475340 449
788442 849550 525
488909 907458 525
112667 188198 383
103143 588730 470
552621 915350 525
757618 854753 525
47598 350734 443
647192 833081 504
582405 663051 509
427806 964657 525
310146 545413 470
485883 733513 509
197657 261354 443
384552 719646 509
631457 687443 442
86343 310996 443
110551 559740 470
132386 565952 470
677177 957619 525
217169 469320 449
838252 845623 401
652732 672310 442
214404 841808 525
341956 872667 525
194327 407420 443
115846 879333 525
346646 989070 525
226033 514363 470
330468 494214 449
344204 489267 449
124086 142516 344
415691 586405 470
492105 649683 509
433603 661570 509
243386 932238 525
886168 956653 507
215643 696478 509
86121 909428 525
491723 908499 525
879746 960703 507
339804 564272 470
326756 902503 525
790589 811043 468
73010 306207 443
305433 542676 470
39401 57087 340
623787 857208 525
163962 641099 509
73403 731980 509
642292 830748 504
177578 314495 443
719248 738277 424
212037 587412 470
291011 929625 525
351062 691088 509
376358 605497 470
68181 464179 449
180777 948167 525
77592 137758 354
210648 228462 386
552060 800911 509
209098 448801 449
474986 720799 509
56549 834577 509
786111 806181 468
702583 762505 504
802226 996209 525
127076 865942 525
606084 871128 525
40344 52743 340
91287 408162 443
473910 767844 509
743462 767913 468
2337 873238 525
279561 348678 441
462299 550345 470
7490 781172 509
210040 458018 449
124468 846296 525
114026 911652 525
253576 915323 525
32935 703732 509
210207 828635 509
354216 719207 509
111476 492420 449
726425 936835 525
192373 265059 443
827642 978880 525
70822 830130 509
86287 752449 509
243773 318337 407
511592 570650 470
539982 784934 509
77669 462252 449
939429 999646 507
52063 263522 443
171933 334390 443
606093 633414 509
751161 763180 424
502585 774535 509
125741 206662 383
711287 954005 525
146118 564465 470
485710 621308 470
43497 441182 449
81739 754589 509
5935 138492 354
36901 188381 383
292669 719037 509
7995 247517 443
94869 811100 509
713554 888708 525
618654 942333 525
367269 830541 509
73106 280068 443
813213 911338 525
205564 877536 525
254418 580608 470
356718 910609 525
201859 255276 443
490960 958786 525
570444 976047 525
160699 980080 525
101529 770884 509
696980 779371 504
328238 418251 449
713421 884716 525
502714 678599 509
680338 922835 525
431150 925934 525
836799 898322 525
224610 539245 470
379491 392521 436
12732 879898 525
527296 784122 509
169657 989406 525
584124 887014 525
108816 239797 443
80997 210951 383
126626 371132 443
86097 835732 509
133465 575297 470
328439 847619 525
175648 257528 443
709754 933817 525
40675 213821 383
146115 294701 443
624383 723448 509
993455 997933 440
89842 803707 509
914816 985840 507
379107 479387 449
141192 473532 449
791868 955945 525
197370 538559 470
4813 704172 509
505915 576954 470
715110 980448 525
45371 849418 525
358472 551393 470
13886 420383 449
530732 904177 525
661633 934573 525
93728 159154 383
435668 446757 400
476890 808232 509
173136 732561 509
407348 523204 470
432983 712504 509
921845 972604 507
193833 486762 449
483643 859609 525
366421 561851 470
760681 811047 468
253616 684564 509
280644 794125 509
134854 902546 525
159375 939579 525
183049 879182 525
154310 430103 449
249450 410813 449
190967 678526 509
370882 641772 509
200951 830208 509
152479 818942 509
617062 755681 509
296364 916142 525
456859 570447 470
45186 321586 443
94578 581886 470
645486 684491 442
198914 432861 449
141719 651735 509
122914 193165 383
69007 264812 443
188980 775112 509
329871 719864 509
261088 895722 525
706168 974764 525
168369 168418 220
204402 790555 509
235560 493381 449
446875 935542 525
47415 230254 386
577024 955835 525
